{
  "project_info": {
    "project_number": "344657047545",
    "firebase_url": "https://mmo-chat-app.firebaseio.com",
    "project_id": "mmo-chat-app",
    "storage_bucket": "mmo-chat-app.appspot.com"
  },
  "client": [
    {
      "client_info": {
        "mobilesdk_app_id": "1:344657047545:android:ebb1217e6c9db833c2d728",
        "android_client_info": {
          "package_name": "com.c0d3in3.mmo_chat"
        }
      },
      "oauth_client": [
        {
          "client_id": "344657047545-7r5obke8fsle3jv671562het2b2func0.apps.googleusercontent.com",
          "client_type": 3
        }
      ],
      "api_key": [
        {
          "current_key": "AIzaSyDCzTf4c0Hswi-1ybJdZ2evsEgWsdNEFws"
        }
      ],
      "services": {
        "appinvite_service": {
          "other_platform_oauth_client": [
            {
              "client_id": "344657047545-7r5obke8fsle3jv671562het2b2func0.apps.googleusercontent.com",
              "client_type": 3
            }
          ]
        }
      }
    }
  ],
  "configuration_version": "1"
}